{
    "kind": "Pod", 
    "spec": {
        "containers": [
            {
                "image": "wordpress", 
                "volumeMounts": [
                    {
                        "mountPath": "/var/www/html", 
                        "name": "wordpress-persistent-storage"
                    }
                ], 
                "name": "wordpress", 
                "env": [
                    {
                        "name": "WORDPRESS_DB_PASSWORD", 
                        "value": "yourpassword"
                    }
                ], 
                "ports": [
                    {
                        "containerPort": 80, 
                        "name": "wordpress"
                    }
                ]
            }
        ], 
        "volumes": [
            {
                "name": "wordpress-persistent-storage", 
                "gcePersistentDisk": {
                    "pdName": "wordpress-disk", 
                    "fsType": "ext4"
                }
            }
        ]
    }, 
    "apiVersion": "v1", 
    "metadata": {
        "labels": {
            "name": "wordpress"
        }, 
        "name": "wordpress"
    }
}